Reproducible Research_Peer assigment_1
…
Reproducible Research_Peer assigment_1

Daniel Bekele

8/9/2021

Load The Data

setwd ("D:/my files/COURSERA/Reproducible Research/Project_1")
activity <- read_csv("activity.csv",show_col_types = FALSE)
activity

## # A tibble: 17,568 x 3
##    steps date       interval
##    <dbl> <date>        <dbl>
##  1    NA 2012-10-01        0
##  2    NA 2012-10-01        5
##  3    NA 2012-10-01       10
##  4    NA 2012-10-01       15
##  5    NA 2012-10-01       20
##  6    NA 2012-10-01       25
##  7    NA 2012-10-01       30
##  8    NA 2012-10-01       35
##  9    NA 2012-10-01       40
## 10    NA 2012-10-01       45
## # ... with 17,558 more rows
…
meanCol<-rep(meantstepsPD,288)
rawstep<-activity$steps
#Find any value missing in any raw steps data
stepmissi<-is.na(rawstep)
# Now replace missing value with mean

rawstep[stepmissi]<-meanCol[stepmissi]

3.Create a new dataset that is equal to the original dataset but with the missing data filled in.

newdata<-activity
newdata$steps<-rawstep
newdata

## # A tibble: 17,568 x 3
##     steps date                interval
##     <dbl> <dttm>                 <dbl>
##  1  0     2012-10-01 00:00:00        0
##  2  0.438 2012-10-01 00:00:00        5
##  3 39.4   2012-10-01 00:00:00       10
##  4 42.1   2012-10-01 00:00:00       15
##  5 46.2   2012-10-01 00:00:00       20
##  6 53.5   2012-10-01 00:00:00       25
##  7 38.2   2012-10-01 00:00:00       30
##  8  0     2012-10-01 00:00:00       35
##  9 44.5   2012-10-01 00:00:00       40
## 10 34.4   2012-10-01 00:00:00       45
## # ... with 17,558 more rows
…
